INDEX VERSION 1.134+B:\Practice Programs\.metadata\.plugins\org.eclipse.jdt.core
4275272683.index
701034769.index
893080009.index
362053897.index
1103031107.index
3239685159.index
264513295.index
4268242859.index
2694719643.index
1875917200.index
3885723375.index
2937791045.index
1846387698.index
34081689.index
3781091643.index
1665207109.index
453346926.index
417121020.index
783164074.index
3032307005.index
1324617414.index
638313905.index
2156324928.index
3910682482.index
1407624140.index
238934357.index
1269558702.index
1987654335.index
1251428216.index
2534814999.index
2382318891.index
1501414043.index
1993983538.index
3294856311.index
3964795435.index
919527257.index
2234360423.index
4236447514.index
2432685227.index
1459039330.index
2112362938.index
1317901436.index
2951285563.index
1655968246.index
1865797976.index
3471765257.index
1014840618.index
2614454832.index
2819632036.index
3768275063.index
4039590453.index
833758914.index
285749407.index
982853651.index
2756496044.index
339791342.index
2176168967.index
353289161.index
829560364.index
2183482283.index
559012191.index
1443168313.index
178004445.index
3212010376.index
260871668.index
2049307510.index
2919905445.index
3303561998.index
2441755711.index
740806669.index
1636262005.index
1301486298.index
2629317607.index
